{
    "version": "6.3.7",
    "description": "The Next-Gen Collaboration Suite",
    "homepage": "https://www.feishu.cn/",
    "license": {
        "identifier": "Proprietary",
        "url": "https://www.feishu.cn/en/terms"
    },
    "notes": "Runtime data are stored in '%APPDATA%\\LarkShell', and are not persisted by Scoop.",
    "url": "https://sf3-cn.feishucdn.com/obj/ee-appcenter/2d633c9d/Feishu-win32_ia32-6.3.7-signed.exe#/dl.7z",
    "hash": "md5:0b8224b9b162bdf67941bbee5be52159",
    "extract_to": "app",
    "shortcuts": [
        [
            "app/Feishu.exe",
            "Feishu"
        ]
    ],
    "checkver": {
        "url": "https://www.feishu.cn/api/downloads",
        "jsonpath": "$.versions.Windows.download_link",
        "regex": "appcenter/(?<tag>[\\w.-/].*?)/(?<suffix>[\\w.-].*?)-([\\d.]+)"
    },
    "autoupdate": {
        "url": "https://sf3-cn.feishucdn.com/obj/ee-appcenter/$matchTag/Feishu-win32_ia32-$version-signed.exe#/dl.7z",
        "hash": {
            "url": "https://www.feishu.cn/api/downloads",
            "jsonpath": "$.versions.Windows.hash"
        }
    }
}
